﻿{
  //"iisSettings": {
  //  "windowsAuthentication": false,
  //  "anonymousAuthentication": true,
  //  "iisExpress": {
  //    "applicationUrl": "http://localhost:63795",
  //    "sslPort": 44374
  //  }
  //},
  "profiles": {
    //"IIS Express": {
    //  "commandName": "IISExpress",
    //  "launchBrowser": true,
    //  "environmentVariables": {
    //    "ASPNETCORE_ENVIRONMENT": "Development"
    //  }
    //},
    "MWMain_Kestrel": {
      "commandName": "Project",
      "launchBrowser": true,
      "applicationUrl": "https://localhost:5001;http://localhost:5000",
      "environmentVariables": {
        "ASPNETCORE_ENVIRONMENT": "Development"
      }
    }
  }
}
